{
    "project_info": {
        "project_number": "583873850766",
        "project_id": "comeca-44627",
        "storage_bucket": "comeca-44627.appspot.com"
    },
    "client": [{
        "client_info": {
            "mobilesdk_app_id": "1:583873850766:android:2270fd088e0042102908df",
            "android_client_info": {
                "package_name": "com.comeca.app"
            }
        },
        "oauth_client": [{
                "client_id": "583873850766-e66rm9174sg0o3hb272ptn6n2f1mq9in.apps.googleusercontent.com",
                "client_type": 1,
                "android_info": {
                    "package_name": "com.comeca.app",
                    "certificate_hash": "5e8f16062ea3cd2c4a0d547876baa6f38cabf625"
                }
            },
            {
                "client_id": "583873850766-qulmvhg5nia53jt592do6j98297p1iqn.apps.googleusercontent.com",
                "client_type": 3
            }
        ],
        "api_key": [{
            "current_key": "AIzaSyDnfbYIYXrCEaq8fLsAnYKhFSWo8YKfJLA"
        }],
        "services": {
            "appinvite_service": {
                "other_platform_oauth_client": [{
                    "client_id": "583873850766-qulmvhg5nia53jt592do6j98297p1iqn.apps.googleusercontent.com",
                    "client_type": 3
                }]
            }
        }
    }],
    "configuration_version": "1"
}